Analítica de los Negocios
…
Default Data

Los datos incluyen si el cliente cayó en default y otras características demográficas del cliente.

default

1: yes

0: no

default |>
  select(default, age, sex)

# A tibble: 30,000 × 3
   default   age   sex
     <dbl> <dbl> <dbl>
 1       1    24     2
 2       1    26     2
 3       0    34     2
 4       0    37     2
 5       0    57     1
 6       0    37     1
 7       0    29     1
 8       0    23     2
 9       0    28     2
10       0    35     1
# ℹ 29,990 more rows
…
tidy(logit_model)

# A tibble: 2 × 5
  term        estimate std.error statistic   p.value
  <chr>          <dbl>     <dbl>     <dbl>     <dbl>
1 (Intercept) -1.39      0.0552     -25.1  4.13e-139
2 age          0.00361   0.00150      2.41 1.62e-  2

\[\log\Big(\frac{\hat{\pi}}{1-\hat{\pi}}\Big) = -1.39 + 0.0036 \times \text{age}\] donde \(\hat{\pi}\) es la probabilidad predicha de que un cliente esté en default

log(odds) predichos

augment(logit_model)

# A tibble: 30,000 × 8
   default   age .fitted .resid      .hat .sigma    .cooksd .std.resid
     <dbl> <dbl>   <dbl>  <dbl>     <dbl>  <dbl>      <dbl>      <dbl>
 1       1    24   -1.30  1.76  0.0000840   1.03 0.000154        1.76 
 2       1    26   -1.29  1.75  0.0000681   1.03 0.000124        1.75 
 3       0    34   -1.26 -0.705 0.0000343   1.03 0.00000484     -0.705
 4       0    37   -1.25 -0.709 0.0000341   1.03 0.00000487     -0.709
 5       0    57   -1.18 -0.732 0.000219    1.03 0.0000336      -0.732
 6       0    37   -1.25 -0.709 0.0000341   1.03 0.00000487     -0.709
 7       0    29   -1.28 -0.700 0.0000498   1.03 0.00000691     -0.700
 8       0    23   -1.30 -0.693 0.0000930   1.03 0.0000126      -0.693
 9       0    28   -1.29 -0.699 0.0000552   1.03 0.00000763     -0.699
10       0    35   -1.26 -0.706 0.0000335   1.03 0.00000474     -0.706
# ℹ 29,990 more rows
…
