Analítica de Datos
…
library(tidyverse)
library(gapminder)

## ---------------------------

### Ejercicio 1

El conjunto de datos gapminder

Como vamos a graficar el conjunto de datos de gapminder, es útil saber que contiene datos de panel sobre la esperanza de vida, el tamaño de la población y el PIB per cápita para 142 países desde la década de 1950.

library(gapminder)
gapminder

# A tibble: 1,704 × 6
   country     continent  year lifeExp      pop gdpPercap
   <fct>       <fct>     <int>   <dbl>    <int>     <dbl>
 1 Afghanistan Asia       1952    28.8  8425333      779.
 2 Afghanistan Asia       1957    30.3  9240934      821.
 3 Afghanistan Asia       1962    32.0 10267083      853.
 4 Afghanistan Asia       1967    34.0 11537966      836.
 5 Afghanistan Asia       1972    36.1 13079460      740.
 6 Afghanistan Asia       1977    38.4 14880372      786.
 7 Afghanistan Asia       1982    39.9 12881816      978.
 8 Afghanistan Asia       1987    40.8 13867957      852.
 9 Afghanistan Asia       1992    41.7 16317921      649.
10 Afghanistan Asia       1997    41.8 22227415      635.
# ℹ 1,694 more rows
…
Selección más estricta

El capítulo 10 de la primera edición de R4DS o https://tibble.tidyverse.org/ son buenas referencias para profundizar en el tema.

Impresión

tibble
data.frame

Muestra las 10 primeras filas y todas las columnas que quepan en la pantalla. Adicionalmente, muestra el tipo de variable para cada columna.

gapminder

# A tibble: 1,704 × 6
   country     continent  year lifeExp      pop gdpPercap
   <fct>       <fct>     <int>   <dbl>    <int>     <dbl>
 1 Afghanistan Asia       1952    28.8  8425333      779.
 2 Afghanistan Asia       1957    30.3  9240934      821.
 3 Afghanistan Asia       1962    32.0 10267083      853.
 4 Afghanistan Asia       1967    34.0 11537966      836.
 5 Afghanistan Asia       1972    36.1 13079460      740.
 6 Afghanistan Asia       1977    38.4 14880372      786.
 7 Afghanistan Asia       1982    39.9 12881816      978.
 8 Afghanistan Asia       1987    40.8 13867957      852.
 9 Afghanistan Asia       1992    41.7 16317921      649.
10 Afghanistan Asia       1997    41.8 22227415      635.
# ℹ 1,694 more rows
…
La primera línea se lee de izquierda a derecha, exactamente como uno pensaría los procesos

La segunda línea invierte totalmente este orden lógico (¡la operación final viene primero!)

El operador pipe en acción

1gapminder

1

Toma el data frame gapminder

# A tibble: 1,704 × 6
   country     continent  year lifeExp      pop gdpPercap
   <fct>       <fct>     <int>   <dbl>    <int>     <dbl>
 1 Afghanistan Asia       1952    28.8  8425333      779.
 2 Afghanistan Asia       1957    30.3  9240934      821.
 3 Afghanistan Asia       1962    32.0 10267083      853.
 4 Afghanistan Asia       1967    34.0 11537966      836.
 5 Afghanistan Asia       1972    36.1 13079460      740.
 6 Afghanistan Asia       1977    38.4 14880372      786.
 7 Afghanistan Asia       1982    39.9 12881816      978.
 8 Afghanistan Asia       1987    40.8 13867957      852.
 9 Afghanistan Asia       1992    41.7 16317921      649.
10 Afghanistan Asia       1997    41.8 22227415      635.
# ℹ 1,694 more rows

El operador pipe en acción

1gapminder |>
2  filter(year == 2007)

1

Toma el data frame gapminder,

2

y luego selecciona las observaciones en el año 2007

# A tibble: 142 × 6
   country     continent  year lifeExp       pop gdpPercap
   <fct>       <fct>     <int>   <dbl>     <int>     <dbl>
 1 Afghanistan Asia       2007    43.8  31889923      975.
 2 Albania     Europe     2007    76.4   3600523     5937.
 3 Algeria     Africa     2007    72.3  33333216     6223.
 4 Angola      Africa     2007    42.7  12420476     4797.
 5 Argentina   Americas   2007    75.3  40301927    12779.
 6 Australia   Oceania    2007    81.2  20434176    34435.
 7 Austria     Europe     2007    79.8   8199783    36126.
 8 Bahrain     Asia       2007    75.6    708573    29796.
 9 Bangladesh  Asia       2007    64.1 150448339     1391.
10 Belgium     Europe     2007    79.4  10392226    33693.
# ℹ 132 more rows
…
1

Toma el data frame gapminder,

2

y luego selecciona las observaciones en el año 2002,

3

y luego agrupa por continente

# A tibble: 142 × 6
# Groups:   continent [5]
   country     continent  year lifeExp       pop gdpPercap
   <fct>       <fct>     <int>   <dbl>     <int>     <dbl>
 1 Afghanistan Asia       2002    42.1  25268405      727.
 2 Albania     Europe     2002    75.7   3508512     4604.
 3 Algeria     Africa     2002    71.0  31287142     5288.
 4 Angola      Africa     2002    41.0  10866106     2773.
 5 Argentina   Americas   2002    74.3  38331121     8798.
 6 Australia   Oceania    2002    80.4  19546792    30688.
 7 Austria     Europe     2002    79.0   8148312    32418.
 8 Bahrain     Asia       2002    74.8    656397    23404.
 9 Bangladesh  Asia       2002    62.0 135656790     1136.
10 Belgium     Europe     2002    78.3  10311970    30486.
# ℹ 132 more rows
…
# A tibble: 4 × 3
  name                species height
  <chr>               <chr>    <int>
1 Darth Vader         Human      202
2 Qui-Gon Jinn        Human      193
3 Dooku               Human      193
4 Bail Prestor Organa Human      191

a | b significa a o b

starwars |> 
  filter( species == "Human" | 
            height >= 190)

# A tibble: 54 × 3
   name               species height
   <chr>              <chr>    <int>
 1 Luke Skywalker     Human      172
 2 Darth Vader        Human      202
 3 Leia Organa        Human      150
 4 Owen Lars          Human      178
 5 Beru Whitesun Lars Human      165
 6 Biggs Darklighter  Human      183
 7 Obi-Wan Kenobi     Human      182
 8 Anakin Skywalker   Human      188
 9 Wilhuff Tarkin     Human      180
10 Chewbacca          Wookiee    228
# ℹ 44 more rows
…
Los datos para el siguiente país que quisieran visitar

¿Por qué ese país?

Todos los datos en el año 2007 y para el continente del país en los puntos anteriores

Filas donde la expectativa de vida sea mayor a 82 en el año 2007 y que no sean Oceanía

2) dplyr::arrange

starwars |> 
  arrange(birth_year) 

# A tibble: 87 × 14
   name     height  mass hair_color skin_color eye_color birth_year sex   gender
   <chr>     <int> <dbl> <chr>      <chr>      <chr>          <dbl> <chr> <chr> 
 1 Wicket …     88  20   brown      brown      brown            8   male  mascu…
 2 IG-88       200 140   none       metal      red             15   none  mascu…
 3 Luke Sk…    172  77   blond      fair       blue            19   male  mascu…
 4 Leia Or…    150  49   brown      light      brown           19   fema… femin…
 5 Wedge A…    170  77   brown      fair       hazel           21   male  mascu…
 6 Plo Koon    188  80   none       orange     black           22   male  mascu…
 7 Biggs D…    183  84   black      light      brown           24   male  mascu…
 8 Han Solo    180  80   brown      fair       brown           29   male  mascu…
 9 Lando C…    177  79   black      dark       brown           31   male  mascu…
10 Boba Fe…    183  78.2 black      fair       brown           31.5 male  mascu…
# ℹ 77 more rows
# ℹ 5 more variables: homeworld <chr>, species <chr>, films <list>,
#   vehicles <list>, starships <list>

Nota: Si se organiza una variable basado en caracteres, se ordenarán alfabéticamente. Intenten ordenando los datos según la variable “name”.

2) dplyr::arrange

También podemos organizar los elementos en orden descendente utilizando arrange(desc()).

starwars |>
  arrange(desc(birth_year))

# A tibble: 87 × 14
   name     height  mass hair_color skin_color eye_color birth_year sex   gender
   <chr>     <int> <dbl> <chr>      <chr>      <chr>          <dbl> <chr> <chr> 
 1 Yoda         66    17 white      green      brown            896 male  mascu…
 2 Jabba D…    175  1358 <NA>       green-tan… orange           600 herm… mascu…
 3 Chewbac…    228   112 brown      unknown    blue             200 male  mascu…
 4 C-3PO       167    75 <NA>       gold       yellow           112 none  mascu…
 5 Dooku       193    80 white      fair       brown            102 male  mascu…
 6 Qui-Gon…    193    89 brown      fair       blue              92 male  mascu…
 7 Ki-Adi-…    198    82 white      pale       yellow            92 male  mascu…
 8 Finis V…    170    NA blond      fair       blue              91 male  mascu…
 9 Palpati…    170    75 grey       pale       yellow            82 male  mascu…
10 Cliegg …    183    NA brown      fair       blue              82 male  mascu…
# ℹ 77 more rows
# ℹ 5 more variables: homeworld <chr>, species <chr>, films <list>,
#   vehicles <list>, starships <list>

💪 Ejercicio 5 - (5 minutos)

¿Cuál es la expectativa de vida más baja en gapminder? ¿Qué país la tiene y en qué año?

¿Cuál es la expectativa de vida más alta en gapminder? ¿Qué país la tiene y en qué año?

3) dplyr::select

Utilicen comas para seleccionar varias columnas de una base de datos (usen “first:last” para columnas consecutivas). Anulen la selección de una columna con “-”.

starwars |> 
  select(name:skin_color, species, -height)

# A tibble: 87 × 5
   name                mass hair_color    skin_color  species
   <chr>              <dbl> <chr>         <chr>       <chr>  
 1 Luke Skywalker        77 blond         fair        Human  
 2 C-3PO                 75 <NA>          gold        Droid  
 3 R2-D2                 32 <NA>          white, blue Droid  
 4 Darth Vader          136 none          white       Human  
 5 Leia Organa           49 brown         light       Human  
 6 Owen Lars            120 brown, grey   light       Human  
 7 Beru Whitesun Lars    75 brown         light       Human  
 8 R5-D4                 32 <NA>          white, red  Droid  
 9 Biggs Darklighter     84 black         light       Human  
10 Obi-Wan Kenobi        77 auburn, white fair        Human  
# ℹ 77 more rows

3) dplyr::select

También pueden cambiar el nombre de algunas (o todas) de las variables seleccionadas.

starwars |>
  select(alias=name, crib=homeworld, sex=gender)

# A tibble: 87 × 3
   alias              crib     sex      
   <chr>              <chr>    <chr>    
 1 Luke Skywalker     Tatooine masculine
 2 C-3PO              Tatooine masculine
 3 R2-D2              Naboo    masculine
 4 Darth Vader        Tatooine masculine
 5 Leia Organa        Alderaan feminine 
 6 Owen Lars          Tatooine masculine
 7 Beru Whitesun Lars Tatooine feminine 
 8 R5-D4              Tatooine masculine
 9 Biggs Darklighter  Tatooine masculine
10 Obi-Wan Kenobi     Stewjon  masculine
# ℹ 77 more rows

Si solo desean cambiar el nombre de las columnas sin seleccionarlas, pueden utilizar rename. Prueben esto ahora reemplazando select(...) en el fragmento de código anterior por rename(...).

3) dplyr::select

La opción select(contains(PATTERN)) proporciona un buen atajo en casos relevantes.

starwars |> 
  select(name, contains("color"))

# A tibble: 87 × 4
   name               hair_color    skin_color  eye_color
   <chr>              <chr>         <chr>       <chr>    
 1 Luke Skywalker     blond         fair        blue     
 2 C-3PO              <NA>          gold        yellow   
 3 R2-D2              <NA>          white, blue red      
 4 Darth Vader        none          white       yellow   
 5 Leia Organa        brown         light       brown    
 6 Owen Lars          brown, grey   light       blue     
 7 Beru Whitesun Lars brown         light       blue     
 8 R5-D4              <NA>          white, red  red      
 9 Biggs Darklighter  black         light       brown    
10 Obi-Wan Kenobi     auburn, white fair        blue-gray
# ℹ 77 more rows
…
Seleccionen solo las columnas year, lifeExp y country en gapminder

Seleccionen todas las columnas excepto year, lifeExp y country en gapminder

4) dplyr::mutate

Pueden crear nuevas columnas desde cero o (más comúnmente) como transformaciones de columnas existentes.

starwars |> 
  select(name, birth_year) |>
  mutate(dog_years = birth_year * 7) |>
  mutate(comment = paste0(name, " is ", dog_years, " in dog years."))

# A tibble: 87 × 4
   name               birth_year dog_years comment                              
   <chr>                   <dbl>     <dbl> <chr>                                
 1 Luke Skywalker           19        133  Luke Skywalker is 133 in dog years.  
 2 C-3PO                   112        784  C-3PO is 784 in dog years.           
 3 R2-D2                    33        231  R2-D2 is 231 in dog years.           
 4 Darth Vader              41.9      293. Darth Vader is 293.3 in dog years.   
 5 Leia Organa              19        133  Leia Organa is 133 in dog years.     
 6 Owen Lars                52        364  Owen Lars is 364 in dog years.       
 7 Beru Whitesun Lars       47        329  Beru Whitesun Lars is 329 in dog yea…
 8 R5-D4                    NA         NA  R5-D4 is NA in dog years.            
 9 Biggs Darklighter        24        168  Biggs Darklighter is 168 in dog year…
10 Obi-Wan Kenobi           57        399  Obi-Wan Kenobi is 399 in dog years.  
# ℹ 77 more rows

4) dplyr::mutate

Nota: mutate tiene en cuenta el orden, por lo que pueden encadenar múltiples cambios en un sólo uso de la función.

starwars |> 
  select(name, birth_year) |>
  mutate(
    dog_years = birth_year * 7, ## Separate with a comma
    comment = paste0(name, " is ", dog_years, " in dog years.")
    )

# A tibble: 87 × 4
   name               birth_year dog_years comment                              
   <chr>                   <dbl>     <dbl> <chr>                                
 1 Luke Skywalker           19        133  Luke Skywalker is 133 in dog years.  
 2 C-3PO                   112        784  C-3PO is 784 in dog years.           
 3 R2-D2                    33        231  R2-D2 is 231 in dog years.           
 4 Darth Vader              41.9      293. Darth Vader is 293.3 in dog years.   
 5 Leia Organa              19        133  Leia Organa is 133 in dog years.     
 6 Owen Lars                52        364  Owen Lars is 364 in dog years.       
 7 Beru Whitesun Lars       47        329  Beru Whitesun Lars is 329 in dog yea…
 8 R5-D4                    NA         NA  R5-D4 is NA in dog years.            
 9 Biggs Darklighter        24        168  Biggs Darklighter is 168 in dog year…
10 Obi-Wan Kenobi           57        399  Obi-Wan Kenobi is 399 in dog years.  
# ℹ 77 more rows
…
Creen una variable llamada africa que sea TRUE si el país está en el continente africano

Agreguen una columna que sea el logaritmo del GDP per cápita (Pista: usen la función log())

Conviertan la expectativa de vida de años a meses

5) dplyr::summarise

Particularmente útil en combinación con el comando group_by.

starwars |> 
  group_by(species, gender) |> 
  summarise(mean_height = mean(height, na.rm = TRUE))

# A tibble: 42 × 3
# Groups:   species [38]
   species   gender    mean_height
   <chr>     <chr>           <dbl>
 1 Aleena    masculine          79
 2 Besalisk  masculine         198
 3 Cerean    masculine         198
 4 Chagrian  masculine         196
 5 Clawdite  feminine          168
 6 Droid     feminine           96
 7 Droid     masculine         140
 8 Dug       masculine         112
 9 Ewok      masculine          88
10 Geonosian masculine         183
# ℹ 32 more rows
…
starwars |> 
  filter(sex == "female") |>
  pull(height)

 [1] 150 165 150 185 163 178 184 170 166 165 168 213 167 178  NA  NA

Otros verbos del dplyr

count y distinct: Cuentan y aíslan observaciones únicas.

starwars |>
  count(species)

# A tibble: 38 × 2
   species       n
   <chr>     <int>
 1 Aleena        1
 2 Besalisk      1
 3 Cerean        1
 4 Chagrian      1
 5 Clawdite      1
 6 Droid         6
 7 Dug           1
 8 Ewok          1
 9 Geonosian     1
10 Gungan        3
# ℹ 28 more rows

starwars |>
  distinct(species)

# A tibble: 38 × 1
   species       
   <chr>         
 1 Human         
 2 Droid         
 3 Wookiee       
 4 Rodian        
 5 Hutt          
 6 <NA>          
 7 Yoda's species
 8 Trandoshan    
 9 Mon Calamari  
10 Ewok          
# ℹ 28 more rows
…
