ggplot y tidyverse - Soluciones
…
Punto 2

¿Por qué ese país?

# Acá valía cualquier cosa. Ejemplo: Me encanta el fútbol!

Punto 3

Todos los datos en el año 2007 y para el continente del país en los puntos anteriores

gapminder |>
  filter(year == 2007,
  continent == "Americas")

# A tibble: 25 × 6
   country            continent  year lifeExp       pop gdpPercap
   <fct>              <fct>     <int>   <dbl>     <int>     <dbl>
 1 Argentina          Americas   2007    75.3  40301927    12779.
 2 Bolivia            Americas   2007    65.6   9119152     3822.
 3 Brazil             Americas   2007    72.4 190010647     9066.
 4 Canada             Americas   2007    80.7  33390141    36319.
 5 Chile              Americas   2007    78.6  16284741    13172.
 6 Colombia           Americas   2007    72.9  44227550     7007.
 7 Costa Rica         Americas   2007    78.8   4133884     9645.
 8 Cuba               Americas   2007    78.3  11416987     8948.
 9 Dominican Republic Americas   2007    72.2   9319622     6025.
10 Ecuador            Americas   2007    75.0  13755680     6873.
# ℹ 15 more rows
…
Al igual que en ggplot(), los argumentos dentro de los verbos del paquete dplyr van separados por comas. Es importante notar cómo el código se vuelve más legible cuando cada argumento se coloca en una línea distinta, en lugar de escribir todo en una sola línea. Por ejemplo, el siguiente código es más difícil de leer que el anterior:

gapminder |> filter(year == 2007, lifeExp > 82, continent != "Oceania")

Ejercicio 5

Punto 1

¿Cuál es la expectativa de vida más baja en gapminder? ¿Qué país la tiene y en qué año?

gapminder |>
  arrange(lifeExp)

# A tibble: 1,704 × 6
   country      continent  year lifeExp     pop gdpPercap
   <fct>        <fct>     <int>   <dbl>   <int>     <dbl>
 1 Rwanda       Africa     1992    23.6 7290203      737.
 2 Afghanistan  Asia       1952    28.8 8425333      779.
 3 Gambia       Africa     1952    30    284320      485.
 4 Angola       Africa     1952    30.0 4232095     3521.
 5 Sierra Leone Africa     1952    30.3 2143249      880.
 6 Afghanistan  Asia       1957    30.3 9240934      821.
 7 Cambodia     Asia       1977    31.2 6978607      525.
 8 Mozambique   Africa     1952    31.3 6446316      469.
 9 Sierra Leone Africa     1957    31.6 2295678     1004.
10 Burkina Faso Africa     1952    32.0 4469979      543.
# ℹ 1,694 more rows

La expectativa más baja en todo el conjunto de datos la tiene Rwanda en 1992.

Punto 2

¿Cuál es la expectativa de vida más alta en gapminder? ¿Qué país la tiene y en qué año?

Acá usamos la opción desc() de la función para cambiar el orden de mayor a menor.

gapminder |>
  arrange(desc(lifeExp))

# A tibble: 1,704 × 6
   country          continent  year lifeExp       pop gdpPercap
   <fct>            <fct>     <int>   <dbl>     <int>     <dbl>
 1 Japan            Asia       2007    82.6 127467972    31656.
 2 Hong Kong, China Asia       2007    82.2   6980412    39725.
 3 Japan            Asia       2002    82   127065841    28605.
 4 Iceland          Europe     2007    81.8    301931    36181.
 5 Switzerland      Europe     2007    81.7   7554661    37506.
 6 Hong Kong, China Asia       2002    81.5   6762476    30209.
 7 Australia        Oceania    2007    81.2  20434176    34435.
 8 Spain            Europe     2007    80.9  40448191    28821.
 9 Sweden           Europe     2007    80.9   9031088    33860.
10 Israel           Asia       2007    80.7   6426679    25523.
# ℹ 1,694 more rows

La expectativa más alta en todo el conjunto de datos la tiene Japón en 2007.

Ejercicio 6

Punto 1

Seleccionen solo las columnas year, lifeExp y country en gapminder

gapminder |>
  select(year, lifeExp, country)

# A tibble: 1,704 × 3
    year lifeExp country    
   <int>   <dbl> <fct>      
 1  1952    28.8 Afghanistan
 2  1957    30.3 Afghanistan
 3  1962    32.0 Afghanistan
 4  1967    34.0 Afghanistan
 5  1972    36.1 Afghanistan
 6  1977    38.4 Afghanistan
 7  1982    39.9 Afghanistan
 8  1987    40.8 Afghanistan
 9  1992    41.7 Afghanistan
10  1997    41.8 Afghanistan
# ℹ 1,694 more rows

Nuevamente, los argumentos van separados por comas.

Punto 2

Seleccionen todas las columnas excepto year, lifeExp y country en gapminder

Recuerden que el signo - se usa para descartar variables en select(). Como en muchos otros casos, hay varias maneras de hacerlo. Por ejemplo:

gapminder |>
  select(-year, -lifeExp, -country)

# A tibble: 1,704 × 3
   continent      pop gdpPercap
   <fct>        <int>     <dbl>
 1 Asia       8425333      779.
 2 Asia       9240934      821.
 3 Asia      10267083      853.
 4 Asia      11537966      836.
 5 Asia      13079460      740.
 6 Asia      14880372      786.
 7 Asia      12881816      978.
 8 Asia      13867957      852.
 9 Asia      16317921      649.
10 Asia      22227415      635.
# ℹ 1,694 more rows

Otra alternativa es usar notación de vectores:

gapminder |>
  select(-c(year, lifeExp, country))

# A tibble: 1,704 × 3
   continent      pop gdpPercap
   <fct>        <int>     <dbl>
 1 Asia       8425333      779.
 2 Asia       9240934      821.
 3 Asia      10267083      853.
 4 Asia      11537966      836.
 5 Asia      13079460      740.
 6 Asia      14880372      786.
 7 Asia      12881816      978.
 8 Asia      13867957      852.
 9 Asia      16317921      649.
10 Asia      22227415      635.
# ℹ 1,694 more rows

Ejercicio 7

Punto 1

Creen una variable llamada africa que sea TRUE si el país está en el continente africano

En , la expresión continent == "Africa" evalúa si cada elemento de la variable continent es igual a "Africa". Esto genera un vector lógico (de valores TRUE o FALSE) del mismo tamaño que la columna continent. Luego, mutate() agrega este vector como una nueva variable llamada africa en el dataset gapminder.

gapminder |>
  mutate(africa = continent =="Africa")

# A tibble: 1,704 × 7
   country     continent  year lifeExp      pop gdpPercap africa
   <fct>       <fct>     <int>   <dbl>    <int>     <dbl> <lgl> 
 1 Afghanistan Asia       1952    28.8  8425333      779. FALSE 
 2 Afghanistan Asia       1957    30.3  9240934      821. FALSE 
 3 Afghanistan Asia       1962    32.0 10267083      853. FALSE 
 4 Afghanistan Asia       1967    34.0 11537966      836. FALSE 
 5 Afghanistan Asia       1972    36.1 13079460      740. FALSE 
 6 Afghanistan Asia       1977    38.4 14880372      786. FALSE 
 7 Afghanistan Asia       1982    39.9 12881816      978. FALSE 
 8 Afghanistan Asia       1987    40.8 13867957      852. FALSE 
 9 Afghanistan Asia       1992    41.7 16317921      649. FALSE 
10 Afghanistan Asia       1997    41.8 22227415      635. FALSE 
# ℹ 1,694 more rows

Punto 2

Agreguen una columna que sea el logaritmo del GDP per cápita (Pista: usen la función log())

El nombre de la nueva variable es libre. En este caso, la llamaremos log_gdp:

gapminder |>
  mutate(log_gdp = log(gdpPercap))

# A tibble: 1,704 × 7
   country     continent  year lifeExp      pop gdpPercap log_gdp
   <fct>       <fct>     <int>   <dbl>    <int>     <dbl>   <dbl>
 1 Afghanistan Asia       1952    28.8  8425333      779.    6.66
 2 Afghanistan Asia       1957    30.3  9240934      821.    6.71
 3 Afghanistan Asia       1962    32.0 10267083      853.    6.75
 4 Afghanistan Asia       1967    34.0 11537966      836.    6.73
 5 Afghanistan Asia       1972    36.1 13079460      740.    6.61
 6 Afghanistan Asia       1977    38.4 14880372      786.    6.67
 7 Afghanistan Asia       1982    39.9 12881816      978.    6.89
 8 Afghanistan Asia       1987    40.8 13867957      852.    6.75
 9 Afghanistan Asia       1992    41.7 16317921      649.    6.48
10 Afghanistan Asia       1997    41.8 22227415      635.    6.45
# ℹ 1,694 more rows

Punto 3

Conviertan la expectativa de vida de años a meses

Aquí no se crea una nueva variable, sino que se modifica lifeExp, que ya existe en los datos:

gapminder |>
  mutate(lifeExp = lifeExp * 12)

# A tibble: 1,704 × 6
   country     continent  year lifeExp      pop gdpPercap
   <fct>       <fct>     <int>   <dbl>    <int>     <dbl>
 1 Afghanistan Asia       1952    346.  8425333      779.
 2 Afghanistan Asia       1957    364.  9240934      821.
 3 Afghanistan Asia       1962    384. 10267083      853.
 4 Afghanistan Asia       1967    408. 11537966      836.
 5 Afghanistan Asia       1972    433. 13079460      740.
 6 Afghanistan Asia       1977    461. 14880372      786.
 7 Afghanistan Asia       1982    478. 12881816      978.
 8 Afghanistan Asia       1987    490. 13867957      852.
 9 Afghanistan Asia       1992    500. 16317921      649.
10 Afghanistan Asia       1997    501. 22227415      635.
# ℹ 1,694 more rows

Nota: Todo esto se podía hacer dentro de una sola llamada a mutate():

gapminder |>
  mutate(africa = continent == "Africa",
  log_gdp = log(gdpPercap),
  lifeExp = lifeExp * 12)

# A tibble: 1,704 × 8
   country     continent  year lifeExp      pop gdpPercap africa log_gdp
   <fct>       <fct>     <int>   <dbl>    <int>     <dbl> <lgl>    <dbl>
 1 Afghanistan Asia       1952    346.  8425333      779. FALSE     6.66
 2 Afghanistan Asia       1957    364.  9240934      821. FALSE     6.71
 3 Afghanistan Asia       1962    384. 10267083      853. FALSE     6.75
 4 Afghanistan Asia       1967    408. 11537966      836. FALSE     6.73
 5 Afghanistan Asia       1972    433. 13079460      740. FALSE     6.61
 6 Afghanistan Asia       1977    461. 14880372      786. FALSE     6.67
 7 Afghanistan Asia       1982    478. 12881816      978. FALSE     6.89
 8 Afghanistan Asia       1987    490. 13867957      852. FALSE     6.75
 9 Afghanistan Asia       1992    500. 16317921      649. FALSE     6.48
10 Afghanistan Asia       1997    501. 22227415      635. FALSE     6.45
# ℹ 1,694 more rows

Ejercicio 8

Punto 1

Calculen el GDP per cápita promedio en 1977 para cada continente

¿Cómo pensar este procedimiento desde el uso del operador pipe?

Lo primero es seleccionar las observaciones para el año 1977 con la función filter() de la siguiente manera:

gapminder |>
  filter(year == 1977)

# A tibble: 142 × 6
   country     continent  year lifeExp      pop gdpPercap
   <fct>       <fct>     <int>   <dbl>    <int>     <dbl>
 1 Afghanistan Asia       1977    38.4 14880372      786.
 2 Albania     Europe     1977    68.9  2509048     3533.
 3 Algeria     Africa     1977    58.0 17152804     4910.
 4 Angola      Africa     1977    39.5  6162675     3009.
 5 Argentina   Americas   1977    68.5 26983828    10079.
 6 Australia   Oceania    1977    73.5 14074100    18334.
 7 Austria     Europe     1977    72.2  7568430    19749.
 8 Bahrain     Asia       1977    65.6   297410    19340.
 9 Bangladesh  Asia       1977    46.9 80428306      660.
10 Belgium     Europe     1977    72.8  9821800    19118.
# ℹ 132 more rows

Lo segundo es agrupar por la variable continent con la función group_by:

gapminder |>
  filter(year == 1977) |>
  group_by(continent)

# A tibble: 142 × 6
# Groups:   continent [5]
   country     continent  year lifeExp      pop gdpPercap
   <fct>       <fct>     <int>   <dbl>    <int>     <dbl>
 1 Afghanistan Asia       1977    38.4 14880372      786.
 2 Albania     Europe     1977    68.9  2509048     3533.
 3 Algeria     Africa     1977    58.0 17152804     4910.
 4 Angola      Africa     1977    39.5  6162675     3009.
 5 Argentina   Americas   1977    68.5 26983828    10079.
 6 Australia   Oceania    1977    73.5 14074100    18334.
 7 Austria     Europe     1977    72.2  7568430    19749.
 8 Bahrain     Asia       1977    65.6   297410    19340.
 9 Bangladesh  Asia       1977    46.9 80428306      660.
10 Belgium     Europe     1977    72.8  9821800    19118.
# ℹ 132 more rows
…
