Análisis de Datos - Precio de Acciones
…
Nota: labels = label_dollar() es una función del paquete scales que, como pueden ver en el gráfico, añade el símbolo de dólar a los números en el eje.

Ejercicio 3

Es claro que muchos de los precios son cero antes del año 2015. Elijan una de las empresas a partir del año 2015 basándose en el siguiente código donde elijo a Netflix:

netflix_data <-  price_data |>
  filter(symbol=="NFLX" & year(date)>2014)

La variable date está en formato de fecha. Para poder usar el año, necesitamos la función year() como lo muestra el anterior código. Mis datos se ven así:

netflix_data

# A tibble: 2,264 × 8
   symbol date         volume  open   low  high close adjusted_close
   <chr>  <date>        <dbl> <dbl> <dbl> <dbl> <dbl>          <dbl>
 1 NFLX   2015-01-02 13475000  49.2  48.7  50.3  49.8           49.8
 2 NFLX   2015-01-05 18165000  49.3  47.1  49.3  47.3           47.3
 3 NFLX   2015-01-06 16037700  47.3  45.7  47.6  46.5           46.5
 4 NFLX   2015-01-07  9849700  47.3  46.3  47.4  46.7           46.7
 5 NFLX   2015-01-08  9601900  47.1  46.5  47.8  47.8           47.8
 6 NFLX   2015-01-09  9578100  47.6  46.9  48.0  47.0           47.0
 7 NFLX   2015-01-12 12944400  47.1  45.3  47.2  45.5           45.5
 8 NFLX   2015-01-13 18721500  46.0  45.9  47.0  46.3           46.3
 9 NFLX   2015-01-14 19884900  47.1  45.7  47.4  46.3           46.3
10 NFLX   2015-01-15 11669000  46.5  45.8  46.8  46.3           46.3
# ℹ 2,254 more rows
…
Expliquen paso a paso qué hace el código anterior. Por ejemplo:

La primera línea crea un nuevo objeto llamado returns a partir de los datos price_data.

…

Ejercicio 10

Por ejemplo, los datos returns se verían de la siguiente manera para Netflix:

# A tibble: 5,439 × 3
   symbol date         return
   <chr>  <date>        <dbl>
 1 NFLX   2002-05-23 NA      
 2 NFLX   2002-05-24  0.0113 
 3 NFLX   2002-05-28 -0.0437 
 4 NFLX   2002-05-29 -0.0463 
 5 NFLX   2002-05-30 -0.0291 
 6 NFLX   2002-05-31  0.00467
 7 NFLX   2002-06-03  0.0484 
 8 NFLX   2002-06-04 -0.00949
 9 NFLX   2002-06-05  0.0262 
10 NFLX   2002-06-06  0.0305 
# ℹ 5,429 more rows
…
